%YAML 1.1
%TAG !u! tag:unity3d.com,2011:
--- !u!1 &100000
GameObject:
  m_ObjectHideFlags: 0
  m_PrefabParentObject: {fileID: 0}
  m_PrefabInternal: {fileID: 100100000}
  serializedVersion: 4
  m_Component:
  - 4: {fileID: 400000}
  - 114: {fileID: 11400000}
  m_Layer: 0
  m_Name: pool_4
  m_TagString: Untagged
  m_Icon: {fileID: 0}
  m_NavMeshLayer: 0
  m_StaticEditorFlags: 0
  m_IsActive: 1
--- !u!4 &400000
Transform:
  m_ObjectHideFlags: 1
  m_PrefabParentObject: {fileID: 0}
  m_PrefabInternal: {fileID: 100100000}
  m_GameObject: {fileID: 100000}
  m_LocalRotation: {x: 0, y: 0, z: 0, w: 1}
  m_LocalPosition: {x: 0, y: 0, z: 0}
  m_LocalScale: {x: 1, y: 1, z: 1}
  m_Children: []
  m_Father: {fileID: 0}
  m_RootOrder: 0
--- !u!114 &11400000
MonoBehaviour:
  m_ObjectHideFlags: 1
  m_PrefabParentObject: {fileID: 0}
  m_PrefabInternal: {fileID: 100100000}
  m_GameObject: {fileID: 100000}
  m_Enabled: 1
  m_EditorHideFlags: 0
  m_Script: {fileID: 11500000, guid: 8025970f3b110cc40bc8d99dcd30f070, type: 3}
  m_Name: 
  m_EditorClassIdentifier: 
  categories:
  - key: start_section
    options:
    - {fileID: 100022, guid: 5b578d31f80c2314ca706824f857eef8, type: 2}
  - key: sections
    options:
    - {fileID: 100022, guid: 6d0fb02ab5907c04996799f56408ac7f, type: 2}
  - key: asteroid
    options:
    - {fileID: 100000, guid: 37002b84d8284b246b8c1bbd1b67bfd3, type: 2}
  - key: good_gate
    options:
    - {fileID: 100000, guid: dd0ed6732b29edd4dbd9ecda15a0b5b7, type: 2}
  - key: bad_gate
    options:
    - {fileID: 100000, guid: 3ea7acdb1c334014db6a5b116ccc32ac, type: 2}
  - key: ship
    options:
    - {fileID: 100000, guid: ae7d2f176d6de36458d43883998867b3, type: 2}
    - {fileID: 100000, guid: 9197fd1c6fdbeab4b8f2c18c5646981c, type: 2}
    - {fileID: 100000, guid: ff2bce78612931d45a4c77388a86b5bb, type: 2}
    - {fileID: 100000, guid: 1cdd249816beba344907c2ed61ab59d3, type: 2}
  - key: star
    options:
    - {fileID: 100000, guid: 436aad754bb50944492083517716d626, type: 2}
  - key: background
    options:
    - {fileID: 100000, guid: c1bb46a998d6f6941983e9ba24ae952a, type: 2}
  - key: celestial_body
    options:
    - {fileID: 100000, guid: 45908671f8b4db14ea64925a31230ac9, type: 2}
    - {fileID: 100000, guid: 3ec74f45c5e52a34fbc70139ce44816d, type: 2}
    - {fileID: 100000, guid: ccb052c1e66281e4f994b4512dd8dcf4, type: 2}
    - {fileID: 100000, guid: f149492670537ea40966d60128bdf6b6, type: 2}
    - {fileID: 100000, guid: b91868e97d3b7bd489bf9680660918d3, type: 2}
  - key: music
    options:
    - {fileID: 100000, guid: 6e98ce40df74c9844bd411ecd18a36dc, type: 2}
--- !u!1001 &100100000
Prefab:
  m_ObjectHideFlags: 1
  serializedVersion: 2
  m_Modification:
    m_TransformParent: {fileID: 0}
    m_Modifications: []
    m_RemovedComponents: []
  m_ParentPrefab: {fileID: 0}
  m_RootGameObject: {fileID: 100000}
  m_IsPrefabParent: 1
  m_IsExploded: 1
