%YAML 1.1
%TAG !u! tag:unity3d.com,2011:
--- !u!1 &100000
GameObject:
  m_ObjectHideFlags: 0
  m_PrefabParentObject: {fileID: 0}
  m_PrefabInternal: {fileID: 100100000}
  serializedVersion: 4
  m_Component:
  - 4: {fileID: 400000}
  - 114: {fileID: 11400000}
  m_Layer: 0
  m_Name: pool
  m_TagString: Untagged
  m_Icon: {fileID: 0}
  m_NavMeshLayer: 0
  m_StaticEditorFlags: 0
  m_IsActive: 1
--- !u!4 &400000
Transform:
  m_ObjectHideFlags: 1
  m_PrefabParentObject: {fileID: 0}
  m_PrefabInternal: {fileID: 100100000}
  m_GameObject: {fileID: 100000}
  m_LocalRotation: {x: 0, y: 0, z: 0, w: 1}
  m_LocalPosition: {x: 0, y: 0, z: 0}
  m_LocalScale: {x: 1, y: 1, z: 1}
  m_Children: []
  m_Father: {fileID: 0}
  m_RootOrder: 0
--- !u!114 &11400000
MonoBehaviour:
  m_ObjectHideFlags: 1
  m_PrefabParentObject: {fileID: 0}
  m_PrefabInternal: {fileID: 100100000}
  m_GameObject: {fileID: 100000}
  m_Enabled: 1
  m_EditorHideFlags: 0
  m_Script: {fileID: 11500000, guid: 8025970f3b110cc40bc8d99dcd30f070, type: 3}
  m_Name: 
  m_EditorClassIdentifier: 
  categories:
  - key: background
    options:
    - {fileID: 100000, guid: abb51fbf7267ae941af0a26b47540917, type: 2}
    - {fileID: 100000, guid: e73359ca0ce99724085b29d22b77677a, type: 2}
    - {fileID: 100000, guid: bf5ef4d98e5de6341a3816a752a6869c, type: 2}
    - {fileID: 100000, guid: 69981a9263b9cf14fa85d090d1fdb770, type: 2}
    - {fileID: 100000, guid: aca9dda928c379249adc0f2372301240, type: 2}
    - {fileID: 100000, guid: c28ff764b371c224aa1e99fe21365806, type: 2}
    - {fileID: 100000, guid: bc33bd657a329fa4e903ad794312ec8f, type: 2}
    - {fileID: 100000, guid: 31694596cb3788e489b47505de624c52, type: 2}
    - {fileID: 100000, guid: 2ffc17288eadfcd4fa3b029d41a3c512, type: 2}
    - {fileID: 100000, guid: 8d35929b7b59abb429b897a1d57fda31, type: 2}
  - key: midground
    options:
    - {fileID: 100004, guid: 857613cf56bf9c24bbfa763e7d738291, type: 2}
    - {fileID: 100004, guid: d8159fcf288e360428a7045e5914f8ef, type: 2}
    - {fileID: 100004, guid: 73f96233cdc79564c88bb3b134030e3b, type: 2}
    - {fileID: 100004, guid: 9835707041ed07e48ab002243a51e003, type: 2}
    - {fileID: 100016, guid: ebf9db6db6e8d0e44b9d9a958eeec18d, type: 2}
    - {fileID: 100010, guid: b9f25d191a8a3cf4bbf99a426f68156d, type: 2}
  - key: foreground
    options:
    - {fileID: 100004, guid: 6f246a25a72e9b2459c10d485b340691, type: 2}
    - {fileID: 100008, guid: 0b5a327067daef7409b2dacc20cf805c, type: 2}
    - {fileID: 100004, guid: 0586e0c359fe5d14485fd4caf6420b96, type: 2}
    - {fileID: 100000, guid: 038b6c4a4822f1c48930770dd62a820e, type: 2}
    - {fileID: 100004, guid: 37a0a3ca771980d4c976365c6d6ea5ae, type: 2}
    - {fileID: 100008, guid: 13285e80d333f574993553f944668493, type: 2}
    - {fileID: 100004, guid: ba1173615e8049842947b46971dfe4dc, type: 2}
  - key: light
    options:
    - {fileID: 100000, guid: 6c337e9b85e484942b7d805e19a544a0, type: 2}
    - {fileID: 100000, guid: 49bf8106f478dc04aa054658a9b2238a, type: 2}
    - {fileID: 100000, guid: 54eb7c44ee6fb7c4a9982ac664227a91, type: 2}
  - key: huge_light
    options:
    - {fileID: 100000, guid: d0f36388d540985419335f0cb44d8100, type: 2}
    - {fileID: 100000, guid: 4d6a3f2b1217bc54aa91f996a3f8f68b, type: 2}
    - {fileID: 100000, guid: 37a39746d5a6ed242ba987fe5adbf91f, type: 2}
    - {fileID: 100000, guid: 90f4eb516663972479ae5ff04b662d3b, type: 2}
    - {fileID: 100000, guid: 4e44701f74ba02b4f97daad087213226, type: 2}
    - {fileID: 100000, guid: 60b84e8bf988ea147894fb4ebface360, type: 2}
  - key: bob
    options:
    - {fileID: 100000, guid: e5d61a83496152f4481662dd31bdf3ef, type: 2}
  - key: sky
    options:
    - {fileID: 100000, guid: c11dd6ce437894849bb40ae0beb66d7b, type: 2}
  - key: star
    options:
    - {fileID: 100000, guid: 613b002d67724e24fb7bd6d37f0ba4ae, type: 2}
  - key: ambient
    options:
    - {fileID: 100000, guid: 36502322d8bc3684cba89860f9dc8f13, type: 2}
  - key: music
    options:
    - {fileID: 100000, guid: 7ec7e272465d36840a5fe543b1811201, type: 2}
  - key: spacer_00
    options:
    - {fileID: 100032, guid: c44ce4274cfc7804db42dabaffcc1742, type: 2}
  - key: spacer_01
    options:
    - {fileID: 100038, guid: a370e6a686ffa144eb2523d6906f7ffa, type: 2}
  - key: spacer_02
    options:
    - {fileID: 100038, guid: 4c0ef15814e89914d9af384feee1bccb, type: 2}
  - key: spacer_11
    options:
    - {fileID: 100038, guid: c561acf6cc8247d48975c7431d9cf447, type: 2}
  - key: spacer_10
    options:
    - {fileID: 100038, guid: 503d49a2a57e49649a7b1e6f45dc96e1, type: 2}
  - key: spacer_20
    options:
    - {fileID: 100038, guid: bd6b98afd32b35f44bca1ed81f52c793, type: 2}
  - key: section_00
    options:
    - {fileID: 100038, guid: 4ab0ee98f296611499b9d8ca96c844ed, type: 2}
    - {fileID: 100040, guid: 891a259ea97d6cb46863b1b035e16961, type: 2}
    - {fileID: 100042, guid: 4440773ae59a5ee45a645b8ff4856820, type: 2}
    - {fileID: 100040, guid: d64d51536bdcd4b4a8c747c06465279f, type: 2}
    - {fileID: 100042, guid: d77a6caf10e8cdd458726aaec1765fd7, type: 2}
    - {fileID: 100042, guid: 0d982586d09bac34882e0e6bae1556a3, type: 2}
  - key: section_01
    options:
    - {fileID: 100038, guid: cd4bcdd701fec3f46949dbb265c15f45, type: 2}
    - {fileID: 100040, guid: 17da22bbb792e1f48be83ca96b1b2349, type: 2}
    - {fileID: 100040, guid: 8c1e5d30847cd9146af344e8e58c11da, type: 2}
    - {fileID: 100042, guid: 95a0e516447bf284280ca50de6d0c3b7, type: 2}
    - {fileID: 100040, guid: 8401c2aa875b4054699f5ac0e936f1f5, type: 2}
    - {fileID: 100044, guid: 1830d8bb7e38d404cb6ec373dd98c1b2, type: 2}
  - key: section_02
    options:
    - {fileID: 100038, guid: a5eec6ef446160243a943fa5f711e02c, type: 2}
    - {fileID: 100040, guid: e19324b6eceabf54c9c1e386dd77e42e, type: 2}
    - {fileID: 100040, guid: 0fdf01c502963d64291c91d988bf4303, type: 2}
    - {fileID: 100042, guid: 5965fd1317a945d4ca546136e671d47d, type: 2}
    - {fileID: 100042, guid: c367a7696499e734ba8f4fbba1906bc2, type: 2}
  - key: section_11
    options:
    - {fileID: 100038, guid: ff364e8e04555ef4587cb31bf9ac0f66, type: 2}
    - {fileID: 100040, guid: b08a16ad5e37ab84683b8541030802e1, type: 2}
    - {fileID: 100042, guid: e78ec339998e4f24b98a5bcbf5100ab1, type: 2}
    - {fileID: 100040, guid: 0dea7939d695727488527909da2d9476, type: 2}
    - {fileID: 100024, guid: 151aa03340fa294409d3f2f8792ec981, type: 2}
    - {fileID: 100044, guid: 192cb07910135364fb47005e68f497c6, type: 2}
  - key: section_10
    options:
    - {fileID: 100038, guid: d3ea849e4ef29fb4f842bf0e7a4b1d8c, type: 2}
    - {fileID: 100040, guid: daebe67085b748f449abc89531483d39, type: 2}
    - {fileID: 100042, guid: f04aed87fe36d7b4c95cc5ed7d18c92a, type: 2}
    - {fileID: 100040, guid: 5e2854378bb802e47865bf6083cc6ba6, type: 2}
    - {fileID: 100006, guid: 3290cf5647feb3943bec98af6833178f, type: 2}
    - {fileID: 100040, guid: 9bea0b87dbc4fc745b7622c0fa8634e2, type: 2}
  - key: section_20
    options:
    - {fileID: 100038, guid: 61e34747f3d510746b637e2ca7f80181, type: 2}
    - {fileID: 100042, guid: 98281aa33e975dc4d9a48e09b33639f4, type: 2}
    - {fileID: 100044, guid: 2f31a638a8da2f5478676c5275af57a5, type: 2}
    - {fileID: 100042, guid: b8e4c56de5f5f7946b34d6e743ade94d, type: 2}
    - {fileID: 100040, guid: e28e7612545578e42ba150a667b068f8, type: 2}
  - key: spider
    options:
    - {fileID: 100008, guid: b1ef569342aeb164bb32cd67491e96f0, type: 2}
--- !u!1001 &100100000
Prefab:
  m_ObjectHideFlags: 1
  serializedVersion: 2
  m_Modification:
    m_TransformParent: {fileID: 0}
    m_Modifications: []
    m_RemovedComponents: []
  m_ParentPrefab: {fileID: 0}
  m_RootGameObject: {fileID: 100000}
  m_IsPrefabParent: 1
  m_IsExploded: 1
