%YAML 1.1
%TAG !u! tag:unity3d.com,2011:
--- !u!21 &2100000
Material:
  serializedVersion: 3
  m_ObjectHideFlags: 0
  m_PrefabParentObject: {fileID: 0}
  m_PrefabInternal: {fileID: 0}
  m_Name: red
  m_Shader: {fileID: 4800000, guid: 1018a0123c7f4ee46ae966fdd9c01990, type: 3}
  m_ShaderKeywords: []
  m_CustomRenderQueue: -1
  m_SavedProperties:
    serializedVersion: 2
    m_TexEnvs:
      data:
        first:
          name: _MainTex
        second:
          m_Texture: {fileID: 2800000, guid: b89e80e3404834230be4fe53c3e2b995, type: 3}
          m_Scale: {x: 5, y: 5}
          m_Offset: {x: 0, y: 0}
      data:
        first:
          name: _MainTexB
        second:
          m_Texture: {fileID: 2800000, guid: b89e80e3404834230be4fe53c3e2b995, type: 3}
          m_Scale: {x: 5, y: 5}
          m_Offset: {x: 0, y: 0}
    m_Floats:
      data:
        first:
          name: _InvFade
        second: .19910714
      data:
        first:
          name: _ScrollX
        second: 1
      data:
        first:
          name: _ScrollY
        second: 1
    m_Colors:
      data:
        first:
          name: _Color
        second: {r: 1, g: 0, b: 0, a: 1}
      data:
        first:
          name: _TintColor
        second: {r: .5, g: .5, b: .5, a: .5}
      data:
        first:
          name: _Scroll
        second: {r: .25, g: .25, b: -.25, a: .25}
      data:
        first:
          name: _Offset
        second: {r: 0, g: .330000013, b: .660000026, a: 1}
