%YAML 1.1
%TAG !u! tag:unity3d.com,2011:
--- !u!114 &11400000
MonoBehaviour:
  m_ObjectHideFlags: 0
  m_PrefabParentObject: {fileID: 0}
  m_PrefabInternal: {fileID: 0}
  m_GameObject: {fileID: 0}
  m_Enabled: 1
  m_EditorHideFlags: 0
  m_Script: {fileID: 11500000, guid: 41cb500cf0f58e74f9a52a8af931edde, type: 3}
  m_Name: -tk2d
  m_EditorClassIdentifier: 
  version: 4
  spriteAnimationIndex:
  - assetGUID: 18a39674a9b14f54b97497254e83b349
    dataGUID: 
    managed: 0
    loadable: 0
  - assetGUID: 68cc4da10d501f9439d1507a1a2c46c1
    dataGUID: 
    managed: 0
    loadable: 0
  - assetGUID: eba2002e1b52e457f811082cb3edaa4d
    dataGUID: 
    managed: 0
    loadable: 0
  - assetGUID: 1acc31aea5f757e44991197f92db70f6
    dataGUID: 
    managed: 0
    loadable: 0
  - assetGUID: 66ce294b52599654381135b006ddccbc
    dataGUID: 
    managed: 0
    loadable: 0
  - assetGUID: 85c59a72ee0728d45ae43f622da636e1
    dataGUID: 
    managed: 0
    loadable: 0
  - assetGUID: 0bc3627b71f4b824182818fd7ae604e2
    dataGUID: 
    managed: 0
    loadable: 0
  fontIndex:
  - assetGUID: 063b15d80dbb4604d890600a64c79cf8
    dataGUID: e7a6b09a73c6b2b4f8060096ddbd3b5e
    managed: 0
    loadable: 0
  - assetGUID: 5b9fac241be038041b70ac7e84cd6151
    dataGUID: 3082bbcb45b417041963b6b8562266c1
    managed: 0
    loadable: 0
  - assetGUID: db60ffa92fa16ea478fc7ad4f595a0e6
    dataGUID: 44e006873ca04f741b2ac3ba5dec92ad
    managed: 0
    loadable: 0
  - assetGUID: 696edcc0ae48b72449b2be1a439a7afb
    dataGUID: fb1b97eccf6db514999d1605baf017e5
    managed: 0
    loadable: 0
  - assetGUID: d54d053b1eb9f435ba39d0a7275f7576
    dataGUID: 00d50654c71944d04960d88e3c352cc1
    managed: 0
    loadable: 0
  - assetGUID: 622b62f4ce4054167ba7243119b7143c
    dataGUID: dc5e8cfc5fff846d7a573bb8f5960093
    managed: 0
    loadable: 0
  - assetGUID: f6e659f74eb1b461b9ba3f6418086bbb
    dataGUID: cb3bf0ad5e92744d6856da9a7d5a3125
    managed: 0
    loadable: 0
  spriteCollectionIndex:
  - name: DemoSpiderSpriteCollection
    spriteCollectionGUID: 1fe2f34d6bac2b440944f04ac87d9e8a
    spriteCollectionDataGUID: 822f1f9eedf119f4eaca33509ba7b549
    spriteNames:
    - body
    - lowerleg
    - mouth
    - upperleg
    spriteTextureGUIDs:
    - 17a4fe5393d6f6048b0a96839cd54591
    - 731aac236e6d1724fb48cd35227e8998
    - 871eb2b697bff4f4e832b95668b9b3cc
    - 75f62f68bfc69b04d876f87672036e09
    spriteTextureTimeStamps:
    - 1415807210
    - 1415807219
    - 1415807221
    - 1415807219
    managedSpriteCollection: 0
    loadable: 0
    assetName: 
    version: 3
  - name: DemoMultiAtlas
    spriteCollectionGUID: 6abdf3241ce81204293a7d50f971e3d7
    spriteCollectionDataGUID: e40f26e01721f87448061d44beed20dd
    spriteNames:
    - explosion_44FR/0
    - explosion_44FR/1
    - explosion_44FR/2
    - explosion_44FR/3
    - explosion_44FR/4
    - explosion_44FR/5
    - explosion_44FR/6
    - explosion_44FR/7
    - explosion_44FR/8
    - explosion_44FR/9
    - explosion_44FR/10
    - explosion_44FR/11
    - explosion_44FR/12
    - explosion_44FR/13
    - explosion_44FR/14
    - explosion_44FR/15
    - explosion_44FR/16
    - explosion_44FR/17
    - explosion_44FR/18
    - explosion_44FR/19
    - explosion_44FR/20
    - explosion_44FR/21
    - explosion_44FR/22
    - explosion_44FR/23
    - explosion_44FR/24
    - explosion_44FR/25
    - explosion_44FR/26
    - explosion_44FR/27
    - explosion_44FR/28
    - explosion_44FR/29
    - explosion_44FR/30
    - explosion_44FR/31
    - explosion_44FR/32
    - explosion_44FR/33
    - explosion_44FR/34
    - explosion_44FR/35
    - explosion_44FR/36
    - explosion_44FR/37
    - explosion_44FR/38
    - explosion_44FR/39
    - explosion_44FR/40
    - explosion_44FR/41
    - explosion_44FR/42
    - explosion_44FR/43
    spriteTextureGUIDs:
    - f38c1e9651d69654c87ea0956466e36d
    - f38c1e9651d69654c87ea0956466e36d
    - f38c1e9651d69654c87ea0956466e36d
    - f38c1e9651d69654c87ea0956466e36d
    - f38c1e9651d69654c87ea0956466e36d
    - f38c1e9651d69654c87ea0956466e36d
    - f38c1e9651d69654c87ea0956466e36d
    - f38c1e9651d69654c87ea0956466e36d
    - f38c1e9651d69654c87ea0956466e36d
    - f38c1e9651d69654c87ea0956466e36d
    - f38c1e9651d69654c87ea0956466e36d
    - f38c1e9651d69654c87ea0956466e36d
    - f38c1e9651d69654c87ea0956466e36d
    - f38c1e9651d69654c87ea0956466e36d
    - f38c1e9651d69654c87ea0956466e36d
    - f38c1e9651d69654c87ea0956466e36d
    - f38c1e9651d69654c87ea0956466e36d
    - f38c1e9651d69654c87ea0956466e36d
    - f38c1e9651d69654c87ea0956466e36d
    - f38c1e9651d69654c87ea0956466e36d
    - f38c1e9651d69654c87ea0956466e36d
    - f38c1e9651d69654c87ea0956466e36d
    - f38c1e9651d69654c87ea0956466e36d
    - f38c1e9651d69654c87ea0956466e36d
    - f38c1e9651d69654c87ea0956466e36d
    - f38c1e9651d69654c87ea0956466e36d
    - f38c1e9651d69654c87ea0956466e36d
    - f38c1e9651d69654c87ea0956466e36d
    - f38c1e9651d69654c87ea0956466e36d
    - f38c1e9651d69654c87ea0956466e36d
    - f38c1e9651d69654c87ea0956466e36d
    - f38c1e9651d69654c87ea0956466e36d
    - f38c1e9651d69654c87ea0956466e36d
    - f38c1e9651d69654c87ea0956466e36d
    - f38c1e9651d69654c87ea0956466e36d
    - f38c1e9651d69654c87ea0956466e36d
    - f38c1e9651d69654c87ea0956466e36d
    - f38c1e9651d69654c87ea0956466e36d
    - f38c1e9651d69654c87ea0956466e36d
    - f38c1e9651d69654c87ea0956466e36d
    - f38c1e9651d69654c87ea0956466e36d
    - f38c1e9651d69654c87ea0956466e36d
    - f38c1e9651d69654c87ea0956466e36d
    - f38c1e9651d69654c87ea0956466e36d
    spriteTextureTimeStamps:
    - 1415807233
    - 1415807233
    - 1415807233
    - 1415807233
    - 1415807233
    - 1415807233
    - 1415807233
    - 1415807233
    - 1415807233
    - 1415807233
    - 1415807233
    - 1415807233
    - 1415807233
    - 1415807233
    - 1415807233
    - 1415807233
    - 1415807233
    - 1415807233
    - 1415807233
    - 1415807233
    - 1415807233
    - 1415807233
    - 1415807233
    - 1415807233
    - 1415807233
    - 1415807233
    - 1415807233
    - 1415807233
    - 1415807233
    - 1415807233
    - 1415807233
    - 1415807233
    - 1415807233
    - 1415807233
    - 1415807233
    - 1415807233
    - 1415807233
    - 1415807233
    - 1415807233
    - 1415807233
    - 1415807233
    - 1415807233
    - 1415807233
    - 1415807233
    managedSpriteCollection: 0
    loadable: 0
    assetName: 
    version: 3
  - name: DemoSpriteCollection
    spriteCollectionGUID: 71d75aef51c47034082eca27f2eb6e30
    spriteCollectionDataGUID: b5aec6ebd1a8ffc458a2e46a3236acab
    spriteNames:
    - bubble_green
    - bubble_red
    - bubble_orange
    - sun
    - bg
    - smoke0
    - smoke4
    - smoke2
    - smoke3
    - smoke1
    - explosion_beam
    - smoke
    - core
    - bg1
    - sheep_0
    - sheep_1
    - sheep_2
    - cloud1
    - cloud2
    - Brown Block
    - Chest Closed
    - Stone Block
    - Rock
    - crate
    - ground
    - smoke5
    - animdemo_4
    - animdemo_5
    - animdemo_1
    - animdemo_3
    - animdemo_2
    - button_down
    - button_up
    - wavyground
    - starspike
    - platform
    - platform_spiked
    - 2dtoolkit_logo
    - background
    - slicedButton_down
    - slicedButton_up
    - attachpoint_glasses
    - attachpoint_gun
    - attachpoint_walk/0
    - attachpoint_walk/1
    - attachpoint_walk/2
    - attachpoint_walk/3
    - attachpoint_walk/4
    - attachpoint_walk/5
    spriteTextureGUIDs:
    - 7aca923e78526cd4b984265f396e04d8
    - bb6c9fb18b1dc46499fc0567ff873e42
    - 4a3adedb01045d0458d6e6330d1dd25d
    - 60ab1d7b85ae054498eb9122996758d9
    - b5e1233ff1ab3d14a8b3e3910c4c8281
    - c9b9253339e73124bbe3b5012f4bc936
    - 39734a83ab620ae42b7fd778891e490e
    - 287c70551d47fed40aaed1d763b2c586
    - f54a71b7ee1fcd541859ccce61c15d4f
    - e89d30fcbd3b3cb4f81b9f612565cd15
    - 972d12151f1a30d4fb5c0457807734e9
    - 6109dd1f0c6a20e40b9a5cc3cd4bbfaa
    - 41539258830f7a24abc38d8bbe487af3
    - 0d86fdb28836c6445974f98f412dfbf2
    - c25d0635778cf614eb2cca727e071fd6
    - d20c61a95bed34948a4408be780c3d55
    - df162a39ace0bbb4dbbe4c348669075c
    - 4a902aa2ec2deaa469755f61aa3e8134
    - a329c3266c887ba44b0bf7c627043688
    - 9fc5fcd3fc8803f4caf11d337579f6c8
    - 6b3b26a1fb4ebcf448d47859ec1cb66f
    - 2deb4cd15b4f4144894c8b9f4f1a19a3
    - 82f0ed3ac7232ae4c8b948fb7654f205
    - f6724743a506f464ea1684044c461aef
    - 2f1986f4c79909a4ca592f02dec914e4
    - 3fe04aba96e31d748a88af0fdc870d13
    - 27e59c976f45f48488bd746d93f38085
    - ce42d39374f446b43974cdf748be1594
    - 7a1c114efdc6f1548b40b62b7666cf2e
    - caa05169d2cbf6b4d8d7748e71781a40
    - e84a1e8c2679c6347b789eb93ff1893f
    - f31ec590f22df524e97e5d2f9139ec46
    - a6bc359a914e1df468afe824439ede88
    - abd2d4d8e662ace4c961589c5d18e01f
    - fe18dfa9012243c4ea82497709a18b26
    - c6c9f7d3fb91a8d4db53b929d3b367df
    - 129360c4101c34f4f8a5650c70863c8c
    - d4b13e5fdf4b0f540be8e00a364ddd35
    - d87ec7b1d50a9164f85cac54c36371e8
    - 8eecf2da5d1c91845ac19745f5828760
    - e322d00650c45ff49ad06ce7a54418a6
    - 67d25fa2d2d3a44e3a662cc8b83e1ee1
    - 2733d522def134859aee48fa56620cc2
    - fa207f7bcc782490fa19b3fa60b34f8e
    - fa207f7bcc782490fa19b3fa60b34f8e
    - fa207f7bcc782490fa19b3fa60b34f8e
    - fa207f7bcc782490fa19b3fa60b34f8e
    - fa207f7bcc782490fa19b3fa60b34f8e
    - fa207f7bcc782490fa19b3fa60b34f8e
    spriteTextureTimeStamps:
    - 1415807220
    - 1415807226
    - 1415807214
    - 1415807217
    - 1415807226
    - 1415807229
    - 1415807212
    - 1415807211
    - 1415807234
    - 1415807233
    - 1415807224
    - 1415807217
    - 1415807213
    - 1415807209
    - 1415807228
    - 1415807230
    - 1415807232
    - 1415807215
    - 1415807225
    - 1415807224
    - 1415807219
    - 1415807211
    - 1415807221
    - 1415807234
    - 1415807211
    - 1415807213
    - 1415807210
    - 1415807230
    - 1415807220
    - 1415807230
    - 1415807232
    - 1415807233
    - 1415807225
    - 1415807225
    - 1415807235
    - 1415807229
    - 1415807210
    - 1415807231
    - 1415807231
    - 1415807223
    - 1415807232
    - 1415807257
    - 1415807253
    - 1415807265
    - 1415807265
    - 1415807265
    - 1415807265
    - 1415807265
    - 1415807265
    managedSpriteCollection: 0
    loadable: 0
    assetName: 
    version: 3
  - name: DemoCameraSpriteCollection
    spriteCollectionGUID: ff338294f6bf0b345850bad080ef85dc
    spriteCollectionDataGUID: 4864518b0693631458553f73aaa86021
    spriteNames:
    - heart_empty
    - heart_full
    - heart_half
    - window
    spriteTextureGUIDs:
    - c3cedcf3f2f726c4ea2af2b350a9ce88
    - 5083dbb889212cf4082bbce0e506a093
    - 775e311b21d73a74c93ca74a71671b1e
    - 03fff0d1701d7e14399d5ee2209561dc
    spriteTextureTimeStamps:
    - 1415807228
    - 1415807216
    - 1415807220
    - 1415807208
    managedSpriteCollection: 0
    loadable: 0
    assetName: 
    version: 3
  - name: UIDemoSpriteCollection
    spriteCollectionGUID: 5d458a11aefe7ec43890453fbb141b28
    spriteCollectionDataGUID: a7b2ba5d04adf144faffa96ff7497955
    spriteNames:
    - SlicedButton
    - background
    - SlicedButton_Hover
    - InputItemBackground
    - InputItemBackgroundHover
    - CheckboxHighlight
    - Checkbox_X
    - Checkbox
    - RadioButtonDot
    - RadioButton
    - RadioButtonHover
    - DropDownButton
    - InputItemBackgroundHoverSolid
    - DropDownButtonHover
    - ScrollbarButtonUpDown
    - ScrollbarButtonUpDownHover
    - ScrollbarThumbButton
    - ScrollbarThumbButtonHover
    - Scrollbar
    - WhiteSquareAnchorTopLeft
    - 
    - WhiteSquare
    spriteTextureGUIDs:
    - 10b038b1b05b3d44998364213b44a84b
    - cdb8375bd7d44bf4c91ea5d1757cbc23
    - f3237190127778749a1642dc2a51c774
    - c7b713dc540174c40a68af7867190a07
    - a0607e12e73242f48a033d14fa2296a7
    - a894d1cc513d8194b80c2ee2188a02f3
    - 39bdc26444063be478543fbf0138d23e
    - 9d92e7051c626e94b9b9cf19dcaa2a66
    - a0b5fdbef0d8b8c498985af59a362e9f
    - f633ebe752e68f44f984163a0b5f19b0
    - 501566f271035e14ea9d5deca292ad9c
    - accb00e270a9cec42addd7602ee0264c
    - e4c720a60ede1944b957ba5ae82437bb
    - 8b1d935dde7b96146bbc799a60202c2c
    - bee881e7b06f83347a7986eaecec6ef3
    - 2b9bd56306a6a814984f2763a3fb1c00
    - 55998978b6504b14ba04ec09e5082488
    - eeaa80b602fa40a42a265023dc9cc359
    - 4334843461093dd42b9d4810d7595958
    - 20bf45e2e89271c43b72895d440f6ab7
    - 
    - 197a84f0983385f41a1d2b3cb0a99dd9
    spriteTextureTimeStamps:
    - 1415807236
    - 1415807249
    - 1415807251
    - 1415807248
    - 1415807245
    - 1415807246
    - 1415807239
    - 1415807245
    - 1415807245
    - 1415807251
    - 1415807240
    - 1415807246
    - 1415807249
    - 1415807243
    - 1415807247
    - 1415807238
    - 1415807241
    - 1415807250
    - 1415807239
    - 1415807238
    - 0
    - 1415807237
    managedSpriteCollection: 0
    loadable: 0
    assetName: 
    version: 3
  - name: UIDemoDark
    spriteCollectionGUID: d09c95902d7b64b389a4a51954b26537
    spriteCollectionDataGUID: d99abb00044ca4f508e7e94f55f6a425
    spriteNames:
    - button_bg
    - checkbox_bg
    - checkbox_tick
    - radiobutton_bg
    - radiobutton_fg
    - slider_bg
    - slider_button
    - slider_fg
    - textbox_bg
    - window_bg
    - bg
    - textbox_bg_selected
    - profile_pic
    spriteTextureGUIDs:
    - d7ca58a2b7e95495ebaf20527bc1e039
    - 90107987410404950bdf45be1f76ce43
    - 45bc5dd920ae343f7ad74ead506687b2
    - 2ed0c837bd46b483bab8e68a9bb8c5e0
    - 2a83caf5a455248199485e5da3ff5500
    - 2dff47291cc184c58b3ca4b700a00c4e
    - 0dfd239ca260444eb869628fb04f885e
    - bbda36fe208274750aa6fb343d5a0288
    - 497b9ad7eb29145da83de9ae7b39627a
    - b7343bf4e58b84eb4bcf5da6b2a6e236
    - ed6eace5351574075b607cc35ce3ba92
    - 37ab6cccc3fca43c9b22ef17ad289719
    - decb81f6e18f248ff88c3eed04676420
    spriteTextureTimeStamps:
    - 1415807284
    - 1415807277
    - 1415807272
    - 1415807270
    - 1415807269
    - 1415807270
    - 1415807267
    - 1415807280
    - 1415807273
    - 1415807279
    - 1415807287
    - 1415807271
    - 1415807286
    managedSpriteCollection: 0
    loadable: 0
    assetName: 
    version: 3
  - name: TilemapdemoSpriteCollection
    spriteCollectionGUID: 3c24cb31cb6f180469332c6b611fbde2
    spriteCollectionDataGUID: f5e64bab9902aaa4593a2652b8552744
    spriteNames:
    - rocks/0
    - rocks/1
    - rocks/2
    - rocks/3
    - rocks/4
    - rocks/5
    - rocks/6
    - rocks/7
    - rocks/8
    - rocks/9
    - rocks/10
    - rocks/11
    - rocks/12
    - rocks/13
    - rocks/14
    - rocks/15
    - rocks/16
    - rocks/17
    - rocks/18
    - rocks/19
    - rocks/20
    - rocks/21
    - rocks/22
    - rocks/23
    - rocks/24
    - rocks/25
    - rocks/26
    - rocks/27
    - rocks/28
    - coinIcon
    - smallPlantIcon
    - coin_0001
    - coin_0002
    - coin_0003
    - coin_0004
    - coin_0005
    - coin_0006
    - coin_0007
    - coin_0008
    - coin_0009
    - coin_0010
    - coin_0011
    - coin_0012
    - coin_0013
    - coin_0014
    - coin_0015
    - coin_0016
    - coin_0017
    - coin_0018
    - coin_0019
    - player
    - player_disabled
    - blocker
    spriteTextureGUIDs:
    - 3321301d154f97a4895a70fbb2f516db
    - 3321301d154f97a4895a70fbb2f516db
    - 3321301d154f97a4895a70fbb2f516db
    - 3321301d154f97a4895a70fbb2f516db
    - 3321301d154f97a4895a70fbb2f516db
    - 3321301d154f97a4895a70fbb2f516db
    - 3321301d154f97a4895a70fbb2f516db
    - 3321301d154f97a4895a70fbb2f516db
    - 3321301d154f97a4895a70fbb2f516db
    - 3321301d154f97a4895a70fbb2f516db
    - 3321301d154f97a4895a70fbb2f516db
    - 3321301d154f97a4895a70fbb2f516db
    - 3321301d154f97a4895a70fbb2f516db
    - 3321301d154f97a4895a70fbb2f516db
    - 3321301d154f97a4895a70fbb2f516db
    - 3321301d154f97a4895a70fbb2f516db
    - 3321301d154f97a4895a70fbb2f516db
    - 3321301d154f97a4895a70fbb2f516db
    - 3321301d154f97a4895a70fbb2f516db
    - 3321301d154f97a4895a70fbb2f516db
    - 3321301d154f97a4895a70fbb2f516db
    - 3321301d154f97a4895a70fbb2f516db
    - 3321301d154f97a4895a70fbb2f516db
    - 3321301d154f97a4895a70fbb2f516db
    - 3321301d154f97a4895a70fbb2f516db
    - 3321301d154f97a4895a70fbb2f516db
    - 3321301d154f97a4895a70fbb2f516db
    - 3321301d154f97a4895a70fbb2f516db
    - 3321301d154f97a4895a70fbb2f516db
    - f9669c4878bb0457faae1278f922a8fb
    - 0e83afcbf810b4a3083b1bc40bf10632
    - ed4e27755606145119540aa1f40e8573
    - 405c14b3dd718434dbacb3945458f90d
    - 7f00ef65d8c1d4cae88cba15b733a07a
    - eb9dd8d48e9594874b48920784e70ef0
    - b34e64ed66b214727ae57be6e1e3d5e5
    - 3761fccbada1248f794447a21a434c0f
    - 258cdc34d93804d70b428087c3f8805d
    - fe7429e30f1c9446aac350b30e864b1d
    - c95f5192f996c453e82f8f8788947a97
    - f5dcfce2fc7a44bcfa8710067aebdb38
    - 2494c4e408a874a46a2602aa4f593417
    - 714843c5e35ad497ea16ca22bf42f2ab
    - e06142f46f9fe4582999bafa9dc40960
    - cf3abded0b5874daeab801327a1945ce
    - 79e88bc7ad84a469da17b781db36d979
    - 8eac813a1d4ca4af4813568b22d501f9
    - d51f36f3836684e5b98cffc1bb2fc27d
    - ac9594eb4576b496394894763a3caa34
    - a06b4afb82724467390888de8251fee2
    - a882bc5b5d57946b6b95f0d5e35cdba9
    - 501d2022a48b64cb09a5d51f14934d38
    - 113be3445db084cd88073b16fbb9fff2
    spriteTextureTimeStamps:
    - 1415807254
    - 1415807254
    - 1415807254
    - 1415807254
    - 1415807254
    - 1415807254
    - 1415807254
    - 1415807254
    - 1415807254
    - 1415807254
    - 1415807254
    - 1415807254
    - 1415807254
    - 1415807254
    - 1415807254
    - 1415807254
    - 1415807254
    - 1415807254
    - 1415807254
    - 1415807254
    - 1415807254
    - 1415807254
    - 1415807254
    - 1415807254
    - 1415807254
    - 1415807254
    - 1415807254
    - 1415807254
    - 1415807254
    - 1415807265
    - 1415807252
    - 1415807264
    - 1415807255
    - 1415807258
    - 1415807264
    - 1415807261
    - 1415807254
    - 1415807253
    - 1415807266
    - 1415807261
    - 1415807265
    - 1415807253
    - 1415807258
    - 1415807263
    - 1415807262
    - 1415807258
    - 1415807259
    - 1415807262
    - 1415807260
    - 1415807259
    - 1415807260
    - 1415807255
    - 1415807252
    managedSpriteCollection: 0
    loadable: 0
    assetName: 
    version: 3
  - name: sprites
    spriteCollectionGUID: e2d72e89743113941b99cff68dcb6e0c
    spriteCollectionDataGUID: e216f0528b5fb494197d18979d08c656
    spriteNames:
    - 
    - red_gate
    - green_gate
    - Ship-4
    - Ship-2
    - Ship-1
    - Ship-3
    - 
    - Fuel
    - Asteroid
    spriteTextureGUIDs:
    - 
    - cfbc9576f1b4b4f56beaa614a32cd0c2
    - 1eff0ccecd5d1479db42a19225ae4ec2
    - 4856ef1bad51ea54d8deaaa320040ace
    - 8e4140d8ad566744badbd52ab826a259
    - 9305df528d0a8ee4a90baab5d50552d0
    - e62214383338c39489d0a5b73c16277b
    - 
    - 0d88b84bd6d99c9468b63f519b70242c
    - d249d4d364b86294ba78269700fc9af2
    spriteTextureTimeStamps:
    - 0
    - 1410794225
    - 1410794225
    - 1422042688
    - 1422042685
    - 1422042683
    - 1422042687
    - 0
    - 1422042682
    - 1422042679
    managedSpriteCollection: 0
    loadable: 0
    assetName: 
    version: 3
  - name: summer_platforms
    spriteCollectionGUID: 745255564d6e70841b3726736a024311
    spriteCollectionDataGUID: f593008a2bad29246b06d9d73abb758a
    spriteNames:
    - 
    - 
    - 
    - 
    - 
    - 
    - 
    - 
    - 
    - 
    - 
    - 
    - 
    - 
    - 
    - 
    - 
    - 
    - 
    - 
    - 
    - 
    - 
    - 
    - 
    - 
    - 
    - 
    - 
    - 
    - 
    - 
    - platform1_right
    - platform1_middle
    - platform1_left
    spriteTextureGUIDs:
    - 
    - 
    - 
    - 
    - 
    - 
    - 
    - 
    - 
    - 
    - 
    - 
    - 
    - 
    - 
    - 
    - 
    - 
    - 
    - 
    - 
    - 
    - 
    - 
    - 
    - 
    - 
    - 
    - 
    - 
    - 
    - 
    - 11197d7858087374dbb97b523fbc67e6
    - ac6ddd425290c934c80e5f83ec5fbc83
    - 1a937de514548f24a97a1bc1c685020a
    spriteTextureTimeStamps:
    - 0
    - 0
    - 0
    - 0
    - 0
    - 0
    - 0
    - 0
    - 0
    - 0
    - 0
    - 0
    - 0
    - 0
    - 0
    - 0
    - 0
    - 0
    - 0
    - 0
    - 0
    - 0
    - 0
    - 0
    - 0
    - 0
    - 0
    - 0
    - 0
    - 0
    - 0
    - 0
    - 1393245454
    - 1393245591
    - 1393245458
    managedSpriteCollection: 0
    loadable: 0
    assetName: 
    version: 3
  - name: additive
    spriteCollectionGUID: ada7b06f13f73a34098ef3cebb79e786
    spriteCollectionDataGUID: 62c0e961c925391498d774602a451198
    spriteNames:
    - light_ball
    - light_beam
    spriteTextureGUIDs:
    - cbeac9c3caed7644a8dd3d5a65c8d606
    - 5a978d5bc0ef1bf42ad26780f8d86ef7
    spriteTextureTimeStamps:
    - 1393245657
    - 1393245653
    managedSpriteCollection: 0
    loadable: 0
    assetName: 
    version: 3
  - name: player
    spriteCollectionGUID: c34cbe63f9c0c354e9b57381dec43844
    spriteCollectionDataGUID: 455779607943f554dad90625992b83e6
    spriteNames:
    - 
    - 
    - 
    - 
    - 
    - 
    - 
    - Bob-1
    - Bob-3
    - Bob-2
    - Bob-4
    spriteTextureGUIDs:
    - 
    - 
    - 
    - 
    - 
    - 
    - 
    - 45acc02450f8e6847aacee1260087c07
    - 5b26f54d6ce6d9844ac41f535267b2de
    - 69a560f0a7d1ecc4abac0c1c6109c09e
    - bdcad89019a79b54abf414d7bb3b52d7
    spriteTextureTimeStamps:
    - 0
    - 0
    - 0
    - 0
    - 0
    - 0
    - 0
    - 1423161073.19361
    - 1423161069.93275
    - 1423161071.64389
    - 1423161068.22862
    managedSpriteCollection: 0
    loadable: 0
    assetName: 
    version: 3
  - name: moles
    spriteCollectionGUID: bd467c1ac296c9649914f2312da04bc3
    spriteCollectionDataGUID: 210fd482115531243ba0239238d30e36
    spriteNames:
    - mole
    - mole whacked
    - Bad_mole
    - mole_parachute
    spriteTextureGUIDs:
    - 34e2afd2633e4e149a1db625ed27717a
    - f094b037b8f477c43a84784cd6e80468
    - 032b186ccdd6e1841bc257c5bea74414
    - cb977af0cd4934908b3b253f561f8561
    spriteTextureTimeStamps:
    - 1418146642
    - 1418146642
    - 1418146642
    - 1395452165
    managedSpriteCollection: 0
    loadable: 0
    assetName: 
    version: 3
  - name: summer_background
    spriteCollectionGUID: 337727191bac59c4ebbd7d103709d717
    spriteCollectionDataGUID: 1d2e44dcc093a7f4ba7eb0b05389598a
    spriteNames:
    - backgr6
    - backgr1
    - backgr2
    - backgr5
    - backgr4
    - backgr3
    - cliffleft1_flat
    - cliffright1_flat
    - cliff_background2_flat
    - tree_spruce3_flat
    - tree_spruce1_flat
    - tree1_flat
    - tree_spruce2_flat
    - cliff_background1_flat
    - tree2_flat
    - cliffmiddle1_flat
    - mountain_2
    - mountain_1
    - mountain_3
    - mountain_4
    - summer
    spriteTextureGUIDs:
    - d463f9c27daf2f242aee2760322c6bb7
    - 210e9c253b0430742a302fa23f6a3e07
    - 6fcd7ca51c338674b89b439c636e0b5e
    - 575e61d9643ff7f4fb349b6f9aab682b
    - 3843c14a96e12f349860cea2d69e8e7b
    - 79b0a26edc2b10e42984e716178d2fa0
    - 460fdc21082b9b04fbfcdcd3e74e6d44
    - aea50ab1e5a36994da060f66c5ce9d58
    - f111e47459b3ac54e83bb3faac85fa35
    - 51dbda1699f9a044f90b1ed631aaa858
    - 5106d129cad4f054cb1cbf5e586d1187
    - 53542169f4240bf499c099f4efd4020e
    - 7f5b6d7b8f1f90a4386626df14035576
    - 3871967cc56ac7f41aea0ea2db2d0a13
    - 8f4c113f093e1b1499c18cc2bcdd510c
    - 0534904f44876d442a886575b06fccdf
    - 2d881fa0836bc134392f30582ec6ea31
    - 5cf332cde3283a54dabc2b7667f6f47d
    - 85c468ef3e79be4429b846826c4e49a6
    - af5d66ba49023a740b9cf32cf0ff1a83
    - 155f8ffa0b4ab3a4c9b932b3c6977694
    spriteTextureTimeStamps:
    - 1421769073.07191
    - 1421769079.40764
    - 1421769077.62058
    - 1421769074.21899
    - 1421769075.22556
    - 1421769076.36799
    - 1393245501
    - 1393245596
    - 1393245643
    - 1393245509
    - 1393245507
    - 1393245511
    - 1393245554
    - 1393245492
    - 1393245568
    - 1393245443
    - 1421768968.94826
    - 1421768967.81652
    - 1421768970.03144
    - 1421768971.25805
    - 1421780415.52511
    managedSpriteCollection: 0
    loadable: 0
    assetName: 
    version: 3
  - name: summer_foreground
    spriteCollectionGUID: aec4ceec89379514b8f32a4dd3f403e2
    spriteCollectionDataGUID: 7449e31370454d040b07662e0e5e6d44
    spriteNames:
    - grass1
    - bush2
    - grass8
    - 
    - flower5
    - shroom4
    - plants3
    - grass3
    - trunk3
    - stone3
    - 
    - shroom2
    - liana2
    - stone1
    - grass5
    - stone7
    - plants5
    - platform_small2
    - flower2
    - 
    - mushroom_big1
    - shroom3
    - trunk2
    - branchc2
    - shroom5
    - 
    - mushroom_big2
    - plants4
    - flower6
    - flower3
    - trunk1
    - plants7
    - 
    - plants6
    - stone6
    - flower1
    - liana1
    - flower4
    - plants2
    - mushroom1
    - branchc1
    - branchc4
    - grass6
    - stone4
    - 
    - 
    - shroom1
    - 
    - platform_small1
    - branchc5
    - branchc3
    - grass7
    - stone5
    - bush1
    - grass2
    - 
    - plants1
    - grass4
    - mushroom2
    spriteTextureGUIDs:
    - 36f6b800291f07b4d96ac61e6c09f373
    - 89103250cad31504c8882a1d5018177c
    - 38a362a0dabbd7949895493e4933d654
    - 
    - d5352961badd53441a44fac15b06668e
    - 0ac47ad167f8f9841b086db2fb4b5241
    - 0be87fd1c69308142b37d661cfa10294
    - 4cffdcb261fa14441b99f9c75bb9fa28
    - 9969a9d2e159ac94f8d8c198c1d4c624
    - 2d2ac0132d245fa4181e6aec1f87bb7f
    - 
    - 35d83f9364b44bf47a5e6d7ff6ab3362
    - 835db7c3251d69348a6b2c0996e9f97b
    - bec111546116abc42ab18d4b2e9f55b8
    - 194f1454dafa3c74e9f2cb9979f07330
    - 68076d648cb5e8646930c550000c1a9f
    - 17877e743632e714a922009b86ea970a
    - 6cc142d4dddb8a24aacf05b86c860d11
    - aedba6f4d9f1402488e2a0be9ad178ff
    - 
    - 61d320465925dac46b63881b5f784fc6
    - c2878d462b523ef42b35283c8975f98c
    - 94223c17d3a5b67439e6ce295c9d2062
    - 700faa37af21d8a468f584619e3bb273
    - d7876b187de638547ba2628fee4ccb77
    - 
    - 9bdfeed8195ded14caaab300fa5aee25
    - 426e55e8a484ab84090d730f5aef4901
    - 65c0f469f4c7e84409f2e078f1290c4a
    - 34eae099cb6ea7d43992cb8bfd368071
    - f429921a30a23ab4e8bd67fc62027d0b
    - 98866b1ad90e0dc45ac39bddc0b467dd
    - 
    - cbf2564adc8d31941b1f736a022f671a
    - a35426dac4f84954390f77a49ccd4f88
    - 6d9ea8fa8463b294da513d06ebb04ad5
    - af33fcbbb259086448b1bf4b0d09dd90
    - 83897dbb290af6b45b1f5ebe7e8a2591
    - 696313db53a96804785415a47723a658
    - 4cace6eb8cb881945894e43aa6038d50
    - 5038a81c0a2461847b11fef372360cbb
    - 215ea72c92df22148861b753a30e1e02
    - 85b7d63c753ee144cac49b8cd300ca27
    - 9e657d6c101128743b1f4e2d6210a56c
    - 
    - 
    - fb641dfc862599e4c8624722d505bacb
    - 
    - 9d53171d6bcb8df49bc3c06597465311
    - 668b0b2d991f2fd4b931341af9c95152
    - bafedf6df28d8c84a976bc3d221bb196
    - cfadbc3e0286e1a4d874f0c49cf044be
    - 0b55075ee992be949b599fd8265f6a0f
    - aab2d0cef21a9524bb1fb9a04cfaa71d
    - e5ffe9fe53db0c14da933ca52d0c9b6f
    - 
    - 738af45f72e883849979b8dbc0c64ebb
    - 772d1fcff617897469927f8f955549ef
    - d18811ef1b8e7204c94f7669b2dead51
    spriteTextureTimeStamps:
    - 1393245482
    - 1393245561
    - 1393245493
    - 0
    - 1393245630
    - 1393245447
    - 1393245449
    - 1393245504
    - 1393245576
    - 1393245478
    - 0
    - 1393245481
    - 1393245556
    - 1393245611
    - 1393245458
    - 1393245531
    - 1393245457
    - 1393245535
    - 1393245599
    - 0
    - 1393245524
    - 1393245615
    - 1393245570
    - 1393245539
    - 1393245631
    - 0
    - 1393245578
    - 1393245498
    - 1393245528
    - 1393245480
    - 1393245645
    - 1393245575
    - 0
    - 1393245619
    - 1393245583
    - 1393245536
    - 1393245600
    - 1393245557
    - 1393245533
    - 1393245503
    - 1393245505
    - 1393245471
    - 1393245559
    - 1393245582
    - 0
    - 0
    - 1393245650
    - 0
    - 1393245580
    - 1393245529
    - 1393245608
    - 1393245621
    - 1393245448
    - 1393245587
    - 1393245637
    - 0
    - 1393245542
    - 1393245544
    - 1393245622
    managedSpriteCollection: 0
    loadable: 0
    assetName: 
    version: 3
  - name: winter_platforms
    spriteCollectionGUID: f773bf03403700b4fa15a0fac2ca9830
    spriteCollectionDataGUID: afdb89289355b144281b941c28196f04
    spriteNames:
    - platform1_right
    - platform1_left
    - platform1_middle
    spriteTextureGUIDs:
    - d91ff23204c4420468d9d0597814da7e
    - 49043b28d4c520641afaff3fbf08941e
    - 15bfdd092d68034488f8e7630639e9ad
    spriteTextureTimeStamps:
    - 1393245749
    - 1393245690
    - 1393245661
    managedSpriteCollection: 0
    loadable: 0
    assetName: 
    version: 3
  - name: winter_background
    spriteCollectionGUID: f4abe864a05e59d4787a0bb24e019405
    spriteCollectionDataGUID: ce81caf2ea3604a49aa6e7a14651fdb4
    spriteNames:
    - cliffleft1_flat
    - cliff_background2_flat
    - cliffright1_flat
    - tree2_flat
    - tree1_flat
    - cliff_background1_flat
    - cliffmiddle1_flat
    - tree_spruce2_flat
    - tree_spruce1_flat
    - tree_spruce3_flat
    - backgr6
    - backgr1
    - backgr2
    - backgr5
    - backgr4
    - backgr3
    - mountain_2
    - mountain_4
    - mountain_1
    - mountain_3
    - winter
    spriteTextureGUIDs:
    - d0d11a5152d9ecc43aaff174e49ce265
    - 8fc6fb2205b5fef45928ff4c06c2fab1
    - 41b6f0a3f01e75f47b77197788944f14
    - eff6c6c35cc62d04aa5cb9ebbe3a4c73
    - a99a9b94652dc2844a84dac770df0025
    - cfbf5f88d3ec5164e80f1992d55728eb
    - a727c13f78956f647a1792d5764078c2
    - 53fb83ae268526c4eac02f52c181980f
    - 74d92431c8474f54aae6faf76cfed283
    - 6ac2eb6a59107c84d98ada579eb0098c
    - d463f9c27daf2f242aee2760322c6bb7
    - 210e9c253b0430742a302fa23f6a3e07
    - 6fcd7ca51c338674b89b439c636e0b5e
    - 575e61d9643ff7f4fb349b6f9aab682b
    - 3843c14a96e12f349860cea2d69e8e7b
    - 79b0a26edc2b10e42984e716178d2fa0
    - 2d881fa0836bc134392f30582ec6ea31
    - af5d66ba49023a740b9cf32cf0ff1a83
    - 5cf332cde3283a54dabc2b7667f6f47d
    - 85c468ef3e79be4429b846826c4e49a6
    - a02752b6c7f389f42a21884455d94b18
    spriteTextureTimeStamps:
    - 1393245746
    - 1393245721
    - 1393245686
    - 1393245755
    - 1393245731
    - 1393245742
    - 1393245728
    - 1421882792.97977
    - 1421882826.2375
    - 1421882839.85837
    - 1421769073.07191
    - 1421769079.40764
    - 1421769077.62058
    - 1421769074.21899
    - 1421769075.22556
    - 1421769076.36799
    - 1421768968.94826
    - 1421768971.25805
    - 1421768967.81652
    - 1421768970.03144
    - 1418897049.01099
    managedSpriteCollection: 0
    loadable: 0
    assetName: 
    version: 3
  - name: winter_foreground
    spriteCollectionGUID: acaa1e58eb16b5446958563b88729aad
    spriteCollectionDataGUID: fde33daf630bbf64086c57016b2a3fcb
    spriteNames:
    - branchc5
    - branchc3
    - branchc4
    - branchc1
    - branchc2
    - bush2
    - bush1
    - flower5
    - flower1
    - flower4
    - flower2
    - flower3
    - flower6
    - grass4
    - grass1
    - grass8
    - grass2
    - grass3
    - grass6
    - grass7
    - liana2
    - liana1
    - mushroom_big2
    - mushroom_big1
    - mushroom1
    - mushroom2
    - plants3
    - plants2
    - plants7
    - plants1
    - plants4
    - plants6
    - plants5
    - shroom3
    - shroom2
    - shroom4
    - shroom1
    - shroom5
    - stone3
    - stone6
    - stone4
    - stone1
    - stone7
    - stone5
    - stone2
    - trunk2
    - trunk3
    - trunk1
    - platform_small2
    - platform_small1
    spriteTextureGUIDs:
    - 3885ddd2885b4d64a922957f85ad782c
    - 5a97bed480dc4f7479312d7df8979cee
    - 8f216e8672a3e7245945071032fd3b4b
    - d063021ac3133cb44a2cc6567ebe1d58
    - 21ff1faea3683cd46a06a76006189895
    - 838682815e5de1e439a6a16100cc63ab
    - cb2e5272de804204688f58b69decc1cb
    - cfe81ca2e761bce488d09fde3d431f39
    - fb00fa07d727c4d4e9b3bc081821c135
    - cf3b1509825ae0a41884ce207f5074ae
    - 760a8a09434ddce44bdf262b22df04bf
    - 831fb79c4d90b77479e3d51abe69c574
    - 985c29dc8159d9f41afcc1ae70b945bf
    - ce5422522da56ef4dba1330774815df8
    - 69f8dfc47ab62c34e8323df3c18ea07d
    - 70c86627a3c4ab6468d21b1c35f5b0d3
    - abaf2499a939fb64a8c226b7dbaae450
    - 311c483c15716b645bf2d482893ea6f2
    - f1e81e3c149bcd744ae3a606c98e6b59
    - 21bd071f08ee5f641a67e04b9abe21bc
    - 7c97d8276a7c6db4fa4d2eedad88a14f
    - 4a3e18ddf36059741af22455e0bded42
    - 87f56d8178811954b87a930e01b91e71
    - 8d5f37c4fcafe434d8ee4ffaf0ea0a35
    - e52bbc656f7f946488eb1e8bc0e3be5f
    - d5f52f298b03c3b49b805680134e64d7
    - 445d377323001674cb12391fc2b41b04
    - 32b09545601af714a928edefdeba4397
    - f543cac6b8dba1c49aa0bf05a8c1338b
    - f7b11bb87ab0b574a8c5825f9823c97f
    - 1e8ab95abe8dcc1478a877f63eb794b3
    - 1b530ddbfdc3bf546941bb2abc6a48cc
    - 5bad30fca403a4643958135987fd425f
    - 369084324e0f2574c833005b1d5087fd
    - 3eef0ec48122dd94692ffa0236a17c45
    - 767b10d8b5138594aad07b799af1dff3
    - 8edfe4da61047e442969a24f97e2d779
    - ade6736f51e3f3644814ca4ec095d4c4
    - e5f23580bf3bd23499fbedf63bdd13cb
    - 7392f732eaf0c004ca62d75804982840
    - 18e87964927674e40a0f52b0ed535026
    - 808756786d5cc144194dec29d26b4b18
    - c1409fb8786502d4484a5bbecadd1574
    - 50d5a7998dfec2246ac97f03dc423e8e
    - 7dd843fbb12842f4583e91910e4e9827
    - 7bb9d6c3365dd6a49abe10ae26f1851b
    - 61e29e2954c7e714d81177c8d73d7470
    - f915b39940f8a2d40abd8749f9acdccc
    - 45228258867eb084ebaeef2482f8ec99
    - 2d57aad88bd01fd43a17c2f0fb7bd04d
    spriteTextureTimeStamps:
    - 1393245682
    - 1393245696
    - 1393245719
    - 1393245744
    - 1393245670
    - 1393245712
    - 1393245739
    - 1393245743
    - 1393245761
    - 1393245741
    - 1393245704
    - 1393245711
    - 1393245723
    - 1393245740
    - 1393245700
    - 1393245702
    - 1393245732
    - 1393245676
    - 1393245758
    - 1393245669
    - 1393245707
    - 1393245692
    - 1393245715
    - 1393245716
    - 1393245753
    - 1393245748
    - 1393245688
    - 1393245676
    - 1393245759
    - 1393245760
    - 1393245668
    - 1393245667
    - 1393245696
    - 1393245680
    - 1393245684
    - 1393245705
    - 1393245718
    - 1393245733
    - 1393245754
    - 1393245702
    - 1393245667
    - 1393245711
    - 1393245736
    - 1393245693
    - 1393245710
    - 1393245707
    - 1393245697
    - 1393245761
    - 1393245689
    - 1393245674
    managedSpriteCollection: 0
    loadable: 0
    assetName: 
    version: 3
  - name: more_space
    spriteCollectionGUID: 51e0693e59d79aa449c77ef5c4b8c147
    spriteCollectionDataGUID: 8b66927f43ec65e4b9ac3f7b6c5dbe51
    spriteNames:
    - Cloud-3
    - Cloud-6
    - Cloud-2
    - Cloud-5
    - Cloud-1
    - Cloud-4
    - Island-1
    - Island-5
    - Island-3
    - Island-4
    - Island-2
    - Plane-B
    - Plane-C
    - Plane-A
    - Water Texture
    spriteTextureGUIDs:
    - 154e881936c3f07478433a206b20ba17
    - 42c9890c8b95e2341b71314bd5acff3c
    - 46e707478e7ab394896955ff8e8a9b8f
    - 6800ba44363159a478db2deff1cb233e
    - 87abb68b17205a14aa5fe11a432dce24
    - c5f924d651c2d9240aa02d66404aa92c
    - 00eb1f29fee8c5f4c97ebcc142e8676e
    - 03165835bf85cb54c80cefc9bb0f569f
    - 13d4c632a4308254e89264310e3d5573
    - cd37260dfc367e540b747a05ba94ecee
    - ff0020ea749fbba4d88f716e5ac7b3bf
    - 00d6c5aaebffd3548a321c94e636a354
    - 59533608e1aa992498f5738afb31f10f
    - d2171cb25cec82744964b2f34e421cb7
    - c114d2682426d324cbfd554f8e5cdfb4
    spriteTextureTimeStamps:
    - 1422353336
    - 1422353347
    - 1422353333
    - 1422353339
    - 1422353342
    - 1422353351
    - 1422353355
    - 1422353370
    - 1422353365
    - 1422353361
    - 1422353373
    - 1422353378
    - 1422353389
    - 1422353384
    - 1422353393
    managedSpriteCollection: 0
    loadable: 0
    assetName: 
    version: 3
  - name: interaction
    spriteCollectionGUID: fcde58f46be56a74bb3d11fa47a81f9b
    spriteCollectionDataGUID: 4022ba18dfb402945ba70052d4863ae3
    spriteNames:
    - Mid-Section
    - Top-Eye-Small
    - Back-Legs
    - Top-Eye
    - Main-Body
    - Front-Leg
    - Main-Eye
    - head_front
    - head_back
    - 
    - 
    - 
    - 
    - 
    - 
    - 
    - 
    - 1
    spriteTextureGUIDs:
    - 04546726f6fed704d9f5580712bb66c6
    - 2158e0702fac7624980704db0a9a7f68
    - 3cf42c3c27a542d4fa0794e4e3f9e757
    - 45ce4a73adfb05b4591157ef81141900
    - 88bc485e60fe37246b505255e83dd010
    - bb0af3be74de3484aae6da965dfaf07b
    - faf06e8eaee8ece4aa3a87b924438b5a
    - 7c40673d0b4eacc4e86c5cc53011b067
    - ba2d2be2665796f4c917db3755da2425
    - 
    - 
    - 
    - 
    - 
    - 
    - 
    - 
    - c64aae5dbf84e834385c2846b374196b
    spriteTextureTimeStamps:
    - 1422290383
    - 1422290386
    - 1422290370
    - 1422290384
    - 1422290378
    - 1422290372
    - 1422290380
    - 1423099882.53888
    - 1422290375
    - 0
    - 0
    - 0
    - 0
    - 0
    - 0
    - 0
    - 0
    - 1422287659
    managedSpriteCollection: 0
    loadable: 0
    assetName: 
    version: 3
