%YAML 1.1
%TAG !u! tag:unity3d.com,2011:
--- !u!1 &100000
GameObject:
  m_ObjectHideFlags: 0
  m_PrefabParentObject: {fileID: 0}
  m_PrefabInternal: {fileID: 100100000}
  serializedVersion: 4
  m_Component:
  - 4: {fileID: 400000}
  - 114: {fileID: 11400000}
  m_Layer: 0
  m_Name: additive
  m_TagString: Untagged
  m_Icon: {fileID: 0}
  m_NavMeshLayer: 0
  m_StaticEditorFlags: 0
  m_IsActive: 1
--- !u!4 &400000
Transform:
  m_ObjectHideFlags: 1
  m_PrefabParentObject: {fileID: 0}
  m_PrefabInternal: {fileID: 100100000}
  m_GameObject: {fileID: 100000}
  m_LocalRotation: {x: 0, y: 0, z: 0, w: 1}
  m_LocalPosition: {x: 0, y: 0, z: 0}
  m_LocalScale: {x: 1, y: 1, z: 1}
  m_Children: []
  m_Father: {fileID: 0}
  m_RootOrder: 0
--- !u!114 &11400000
MonoBehaviour:
  m_ObjectHideFlags: 1
  m_PrefabParentObject: {fileID: 0}
  m_PrefabInternal: {fileID: 100100000}
  m_GameObject: {fileID: 100000}
  m_Enabled: 1
  m_EditorHideFlags: 0
  m_Script: {fileID: 11500000, guid: d546f34a90531a14eaba82a43b05b86b, type: 3}
  m_Name: 
  m_EditorClassIdentifier: 
  version: 3
  materialIdsValid: 1
  needMaterialInstance: 0
  spriteDefinitions:
  - name: light_ball
    boundsData:
    - {x: 0, y: 0, z: 0}
    - {x: 15.3599997, y: 15.3599997, z: 0}
    untrimmedBoundsData:
    - {x: 0, y: 0, z: 0}
    - {x: 15.3599997, y: 15.3599997, z: 0}
    texelSize: {x: .0599999987, y: .0599999987}
    positions:
    - {x: -7.67999983, y: -7.67999983, z: 0}
    - {x: 7.67999983, y: -7.67999983, z: 0}
    - {x: -7.67999983, y: 7.67999983, z: 0}
    - {x: 7.67999983, y: 7.67999983, z: 0}
    normals: []
    tangents: []
    uvs:
    - {x: .00390820298, y: .00390820298}
    - {x: .503904283, y: .00390820298}
    - {x: .00390820298, y: .503904283}
    - {x: .503904283, y: .503904283}
    indices: 000000000300000001000000020000000300000000000000
    material: {fileID: 2100000, guid: 7aeeaf7fd122d06469a30b630d47d980, type: 2}
    materialId: 0
    sourceTextureGUID: cbeac9c3caed7644a8dd3d5a65c8d606
    extractRegion: 0
    regionX: 0
    regionY: 0
    regionW: 0
    regionH: 0
    flipped: 0
    complexGeometry: 0
    physicsEngine: 0
    colliderType: 0
    customColliders: []
    colliderVertices: []
    colliderIndicesFwd: 
    colliderIndicesBack: 
    colliderConvex: 0
    colliderSmoothSphereCollisions: 0
    polygonCollider2D: []
    edgeCollider2D: []
    attachPoints: []
  - name: light_beam
    boundsData:
    - {x: 0, y: 0, z: 0}
    - {x: 5.11999989, y: 10.2399998, z: 0}
    untrimmedBoundsData:
    - {x: 0, y: 0, z: 0}
    - {x: 5.11999989, y: 10.2399998, z: 0}
    texelSize: {x: .0799999982, y: .0399999991}
    positions:
    - {x: -2.55999994, y: -5.11999989, z: 0}
    - {x: 2.55999994, y: -5.11999989, z: 0}
    - {x: -2.55999994, y: 5.11999989, z: 0}
    - {x: 2.55999994, y: 5.11999989, z: 0}
    normals: []
    tangents: []
    uvs:
    - {x: .00390820298, y: .511720717}
    - {x: .00390820298, y: .636716783}
    - {x: .503904283, y: .511720717}
    - {x: .503904283, y: .636716783}
    indices: 000000000300000001000000020000000300000000000000
    material: {fileID: 2100000, guid: 211f00fa7373e624b8b6e28a48b6b059, type: 2}
    materialId: 1
    sourceTextureGUID: 5a978d5bc0ef1bf42ad26780f8d86ef7
    extractRegion: 0
    regionX: 0
    regionY: 0
    regionW: 0
    regionH: 0
    flipped: 1
    complexGeometry: 0
    physicsEngine: 0
    colliderType: 0
    customColliders: []
    colliderVertices: []
    colliderIndicesFwd: 
    colliderIndicesBack: 
    colliderConvex: 0
    colliderSmoothSphereCollisions: 0
    polygonCollider2D: []
    edgeCollider2D: []
    attachPoints: []
  premultipliedAlpha: 0
  material: {fileID: 0}
  materials:
  - {fileID: 2100000, guid: 7aeeaf7fd122d06469a30b630d47d980, type: 2}
  - {fileID: 2100000, guid: 211f00fa7373e624b8b6e28a48b6b059, type: 2}
  textures:
  - {fileID: 2800000, guid: c3d63bc7ecb9ca64bac4a9666ce7ac44, type: 3}
  pngTextures: []
  materialPngTextureId: 0000000000000000
  textureFilterMode: 1
  textureMipMaps: 0
  allowMultipleAtlases: 0
  spriteCollectionGUID: ada7b06f13f73a34098ef3cebb79e786
  spriteCollectionName: additive
  assetName: 
  loadable: 0
  invOrthoSize: 2
  halfTargetHeight: 50
  buildKey: 1421043908
  dataGuid: 62c0e961c925391498d774602a451198
  managedSpriteCollection: 0
  hasPlatformData: 0
  spriteCollectionPlatforms: []
  spriteCollectionPlatformGUIDs: []
--- !u!1001 &100100000
Prefab:
  m_ObjectHideFlags: 1
  serializedVersion: 2
  m_Modification:
    m_TransformParent: {fileID: 0}
    m_Modifications: []
    m_RemovedComponents: []
  m_ParentPrefab: {fileID: 0}
  m_RootGameObject: {fileID: 100000}
  m_IsPrefabParent: 1
  m_IsExploded: 1
