%YAML 1.1
%TAG !u! tag:unity3d.com,2011:
--- !u!1 &100000
GameObject:
  m_ObjectHideFlags: 0
  m_PrefabParentObject: {fileID: 0}
  m_PrefabInternal: {fileID: 100100000}
  serializedVersion: 4
  m_Component:
  - 4: {fileID: 400000}
  - 114: {fileID: 11400000}
  m_Layer: 0
  m_Name: menus
  m_TagString: Untagged
  m_Icon: {fileID: 0}
  m_NavMeshLayer: 0
  m_StaticEditorFlags: 0
  m_IsActive: 1
--- !u!4 &400000
Transform:
  m_ObjectHideFlags: 1
  m_PrefabParentObject: {fileID: 0}
  m_PrefabInternal: {fileID: 100100000}
  m_GameObject: {fileID: 100000}
  m_LocalRotation: {x: 0, y: 0, z: 0, w: 1}
  m_LocalPosition: {x: 0, y: 0, z: 0}
  m_LocalScale: {x: 1, y: 1, z: 1}
  m_Children: []
  m_Father: {fileID: 0}
  m_RootOrder: 0
--- !u!114 &11400000
MonoBehaviour:
  m_ObjectHideFlags: 1
  m_PrefabParentObject: {fileID: 0}
  m_PrefabInternal: {fileID: 100100000}
  m_GameObject: {fileID: 100000}
  m_Enabled: 1
  m_EditorHideFlags: 0
  m_Script: {fileID: 11500000, guid: 4d0c51bb0b6e93049af5e88f93826e3b, type: 3}
  m_Name: 
  m_EditorClassIdentifier: 
  material: {fileID: 2100000, guid: f052f074cc916794d8aa67b1b78a93aa, type: 2}
  mSprites:
  - name: Back-Button
    x: 1483
    y: 1435
    width: 384
    height: 234
    borderLeft: 0
    borderRight: 0
    borderTop: 0
    borderBottom: 0
    paddingLeft: 1
    paddingRight: 1
    paddingTop: 1
    paddingBottom: 1
  - name: Button
    x: 1508
    y: 1175
    width: 415
    height: 129
    borderLeft: 0
    borderRight: 0
    borderTop: 0
    borderBottom: 0
    paddingLeft: 0
    paddingRight: 1
    paddingTop: 2
    paddingBottom: 1
  - name: Choose-Game-Button
    x: 0
    y: 1088
    width: 934
    height: 254
    borderLeft: 0
    borderRight: 0
    borderTop: 0
    borderBottom: 0
    paddingLeft: 0
    paddingRight: 1
    paddingTop: 1
    paddingBottom: 1
  - name: Close-Button
    x: 1814
    y: 1744
    width: 127
    height: 138
    borderLeft: 0
    borderRight: 0
    borderTop: 0
    borderBottom: 0
    paddingLeft: 1
    paddingRight: 2
    paddingTop: 2
    paddingBottom: 2
  - name: Exit-Button
    x: 1814
    y: 1884
    width: 146
    height: 164
    borderLeft: 0
    borderRight: 0
    borderTop: 0
    borderBottom: 0
    paddingLeft: 0
    paddingRight: 0
    paddingTop: 0
    paddingBottom: 0
  - name: Eye-Select-Active
    x: 1508
    y: 1036
    width: 124
    height: 137
    borderLeft: 0
    borderRight: 0
    borderTop: 0
    borderBottom: 0
    paddingLeft: 0
    paddingRight: 1
    paddingTop: 2
    paddingBottom: 1
  - name: Level-Select
    x: 626
    y: 1671
    width: 1038
    height: 193
    borderLeft: 0
    borderRight: 0
    borderTop: 0
    borderBottom: 0
    paddingLeft: 0
    paddingRight: 0
    paddingTop: 0
    paddingBottom: 0
  - name: Login
    x: 626
    y: 1866
    width: 539
    height: 182
    borderLeft: 0
    borderRight: 0
    borderTop: 0
    borderBottom: 0
    paddingLeft: 132
    paddingRight: 129
    paddingTop: 49
    paddingBottom: 49
  - name: Money
    x: 1167
    y: 1893
    width: 615
    height: 155
    borderLeft: 0
    borderRight: 0
    borderTop: 0
    borderBottom: 0
    paddingLeft: 0
    paddingRight: 1
    paddingTop: 0
    paddingBottom: 0
  - name: Mouse-Select-UNActive
    x: 1869
    y: 1605
    width: 124
    height: 137
    borderLeft: 0
    borderRight: 0
    borderTop: 0
    borderBottom: 0
    paddingLeft: 0
    paddingRight: 1
    paddingTop: 2
    paddingBottom: 1
  - name: Music-Button-Active
    x: 1348
    y: 990
    width: 124
    height: 137
    borderLeft: 0
    borderRight: 0
    borderTop: 0
    borderBottom: 0
    paddingLeft: 0
    paddingRight: 1
    paddingTop: 2
    paddingBottom: 1
  - name: Music-Button-UNActive
    x: 1634
    y: 1036
    width: 124
    height: 137
    borderLeft: 0
    borderRight: 0
    borderTop: 0
    borderBottom: 0
    paddingLeft: 0
    paddingRight: 1
    paddingTop: 2
    paddingBottom: 1
  - name: Overlay-Box
    x: 0
    y: 1344
    width: 624
    height: 704
    borderLeft: 0
    borderRight: 0
    borderTop: 0
    borderBottom: 0
    paddingLeft: 0
    paddingRight: 1
    paddingTop: 1
    paddingBottom: 1
  - name: Score
    x: 626
    y: 1466
    width: 855
    height: 203
    borderLeft: 0
    borderRight: 0
    borderTop: 0
    borderBottom: 0
    paddingLeft: 0
    paddingRight: 1
    paddingTop: 0
    paddingBottom: 0
  - name: Scroll-Bar
    x: 1474
    y: 427
    width: 20
    height: 700
    borderLeft: 10
    borderRight: 10
    borderTop: 10
    borderBottom: 10
    paddingLeft: 2
    paddingRight: 2
    paddingTop: 2
    paddingBottom: 2
  - name: Scroll-Nub
    x: 1925
    y: 1154
    width: 96
    height: 150
    borderLeft: 0
    borderRight: 0
    borderTop: 45
    borderBottom: 70
    paddingLeft: 2
    paddingRight: 3
    paddingTop: 3
    paddingBottom: 4
  - name: Select-Level-Done
    x: 1222
    y: 1129
    width: 284
    height: 304
    borderLeft: 0
    borderRight: 0
    borderTop: 0
    borderBottom: 0
    paddingLeft: 1
    paddingRight: 1
    paddingTop: 1
    paddingBottom: 1
  - name: Select-Level-Locked
    x: 936
    y: 1160
    width: 284
    height: 304
    borderLeft: 0
    borderRight: 0
    borderTop: 0
    borderBottom: 0
    paddingLeft: 1
    paddingRight: 1
    paddingTop: 1
    paddingBottom: 1
  - name: Select-Level-Open
    x: 936
    y: 854
    width: 284
    height: 304
    borderLeft: 0
    borderRight: 0
    borderTop: 0
    borderBottom: 0
    paddingLeft: 1
    paddingRight: 1
    paddingTop: 1
    paddingBottom: 1
  - name: Settings
    x: 1508
    y: 1306
    width: 511
    height: 127
    borderLeft: 0
    borderRight: 0
    borderTop: 0
    borderBottom: 0
    paddingLeft: 0
    paddingRight: 0
    paddingTop: 0
    paddingBottom: 0
  - name: Settings-Button
    x: 1666
    y: 1727
    width: 146
    height: 164
    borderLeft: 0
    borderRight: 0
    borderTop: 0
    borderBottom: 0
    paddingLeft: 0
    paddingRight: 1
    paddingTop: 1
    paddingBottom: 1
  - name: Sound-Button-Active
    x: 1222
    y: 990
    width: 124
    height: 137
    borderLeft: 0
    borderRight: 0
    borderTop: 0
    borderBottom: 0
    paddingLeft: 0
    paddingRight: 1
    paddingTop: 2
    paddingBottom: 1
  - name: Sound-Button-UNActive
    x: 1869
    y: 1466
    width: 124
    height: 137
    borderLeft: 0
    borderRight: 0
    borderTop: 0
    borderBottom: 0
    paddingLeft: 0
    paddingRight: 1
    paddingTop: 2
    paddingBottom: 1
  mPixelSize: 1
  mReplacement: {fileID: 0}
  mCoordinates: 0
  sprites: []
--- !u!1001 &100100000
Prefab:
  m_ObjectHideFlags: 1
  serializedVersion: 2
  m_Modification:
    m_TransformParent: {fileID: 0}
    m_Modifications: []
    m_RemovedComponents: []
  m_ParentPrefab: {fileID: 0}
  m_RootGameObject: {fileID: 100000}
  m_IsPrefabParent: 1
  m_IsExploded: 1
